%YAML 1.1
%TAG !u! tag:unity3d.com,2011:
--- !u!1045 &1
EditorBuildSettings:
  m_ObjectHideFlags: 0
  serializedVersion: 2
  m_Scenes:
  - enabled: 1
    path: Assets/Scenes/map.unity
    guid: 9cbf26615e739224db9435c7026aa9e8
  - enabled: 1
    path: Assets/Scenes/main.unity
    guid: 6e5a52b53b37c3746b5069868a961e2a
